slide1.m4a  10s

slide2a.m4a 32s
slide2b.m4a 04s

slide3a.m4a 10s
slide3b.m4a 11s
slide3c.m4a 25s # switch slide 14 seconds into this audio clip

slide4a.m4a 17s
slide4b.m4a 10s
slide4c.m4a 12s
slide4d.m4a 12s

slide5a.m4a 17s
slide5b.m4a 26s

slide6a.m4a 18s
slide6b.m4a 07s

10+32+4+10+11+25+17+10+12+12+17+26+18+7 = 211
